…
``` r
barplot_groups_merged_species$data
```

    ## # A tibble: 22 x 25
    ##    OTU     Sample Abundance Sample_Number NAFLD PNPLA3 Visceral.Subc   sex race2
    ##    <chr>   <chr>      <dbl>         <dbl> <dbl>  <dbl>         <dbl> <dbl> <dbl>
    ##  1 Faecal~ NAFLD     0.0935          50.4    NA     NA          1.67  1.39  2.44
    ##  2 Eubact~ NAFLD     0.0861          50.4    NA     NA          1.67  1.39  2.44
    ##  3 Prevot~ NAFLD     0.0162          50.4    NA     NA          1.67  1.39  2.44
    ##  4 Bifido~ NAFLD     0.0850          50.4    NA     NA          1.67  1.39  2.44
    ##  5 Bacter~ NAFLD     0.0145          50.4    NA     NA          1.67  1.39  2.44
    ##  6 Fusica~ NAFLD     0.0600          50.4    NA     NA          1.67  1.39  2.44
    ##  7 Rumino~ NAFLD     0.0393          50.4    NA     NA          1.67  1.39  2.44
    ##  8 Anaero~ NAFLD     0.0409          50.4    NA     NA          1.67  1.39  2.44
    ##  9 Eubact~ NAFLD     0.0243          50.4    NA     NA          1.67  1.39  2.44
    ## 10 Dorea ~ NAFLD     0.0321          50.4    NA     NA          1.67  1.39  2.44
    ## # ... with 12 more rows, and 16 more variables: BMI <dbl>, height <dbl>,
    ## #   weight <dbl>, OverRepresented <dbl>, OverRepresented_Presence <dbl>,
    ## #   SAMPLE <ord>, SuperKingdom <chr>, Phylum <chr>, Class <chr>, Order <chr>,
    ## #   Family <chr>, Genus <chr>, Species <chr>, top <ord>, separate <chr>,
    ## #   unique <ord>
…
